Consultando la base de datos regulonDB con el paquete regutools
…
---
class: middle, center
<img src="img/dplyr_relocate.png" width="90%" style="display: block; margin: auto;" />

---

```r
select(resultado,"id", "name", "strand","sigma_factor")
```

```
## # A tibble: 4,602 x 4
##    id           name  strand  sigma_factor   
##    <chr>        <chr> <chr>   <chr>          
##  1 ECK120000001 alr   forward <NA>           
##  2 ECK120000002 modB  forward Sigma28,Sigma70
##  3 ECK120000003 cysZ  forward <NA>           
##  4 ECK120000004 dfp   forward <NA>           
##  5 ECK120000005 dcuB  reverse Sigma70        
##  6 ECK120000006 hisM  reverse Sigma54,Sigma70
##  7 ECK120000007 zraS  forward Sigma54        
##  8 ECK120000008 rhsE  forward <NA>           
##  9 ECK120000009 yaaA  reverse <NA>           
## 10 ECK120000010 cydC  reverse Sigma70        
## # … with 4,592 more rows
```
…
